…
```r
library(rsample)

install.packages("rsample")
coci2<-bootstraps(coci, times = 63)
coci2
```
Obteniendo la siguiente salida:
```r
> coci2
# Bootstrap sampling 
# A tibble: 63 x 2
   splits        id         
   <list>        <chr>      
 1 <split [1/0]> Bootstrap01
 2 <split [1/0]> Bootstrap02
 3 <split [1/0]> Bootstrap03
 4 <split [1/0]> Bootstrap04
 5 <split [1/0]> Bootstrap05
 6 <split [1/0]> Bootstrap06
 7 <split [1/0]> Bootstrap07
 8 <split [1/0]> Bootstrap08
 9 <split [1/0]> Bootstrap09
10 <split [1/0]> Bootstrap10
# ... with 53 more rows
```
…
